Craft Beer Analysis | Lijo Jacob
…
# This will print out the number of breweries in each State    
breweriesByStatedf

## # A tibble: 50 × 4
##    StateFN       State breweryCount region       
##    <chr>         <chr>        <int> <chr>        
##  1 Colorado      CO              47 colorado     
##  2 California    CA              39 california   
##  3 Michigan      MI              32 michigan     
##  4 Oregon        OR              29 oregon       
##  5 Texas         TX              28 texas        
##  6 Pennsylvania  PA              25 pennsylvania 
##  7 Massachusetts MA              23 massachusetts
##  8 Washington    WA              23 washington   
##  9 Indiana       IN              22 indiana      
## 10 Wisconsin     WI              20 wisconsin    
## # … with 40 more rows
…
